{
  "type": "FeatureCollection",
  "features": [
    {
      "type": "Feature",
      "properties": {
        "POINT_ID": "541c9517-8521-4c7f-aa7c-fbfa00da5d78",
        "LEVEL_ID": "5a79843e-2b93-4173-8b62-f77c5520cb41",
        "CATEGORY": "Restroom"
      },
      "geometry": {
        "type": "Point",
        "coordinates": [
          -84.3917344699756,
          42.2506452206176
        ]
      }
    },
    {
      "type": "Feature",
      "properties": {
        "POINT_ID": "d257423f-d46f-44a5-ad34-b835c47144ee",
        "LEVEL_ID": "5a79843e-2b93-4173-8b62-f77c5520cb41",
        "CATEGORY": "Elevator"
      },
      "geometry": {
        "type": "Point",
        "coordinates": [
          -84.39208647930884,
          42.25043626341185
        ]
      }
    },
    {
      "type": "Feature",
      "properties": {
        "POINT_ID": "60252249-bfcd-4738-8799-c776fda79beb",
        "LEVEL_ID": "5a79843e-2b93-4173-8b62-f77c5520cb41",
        "CATEGORY": "Stairs"
      },
      "geometry": {
        "type": "Point",
        "coordinates": [
          -84.3920217361704,
          42.25045154516678
        ]
      }
    },
    {
      "type": "Feature",
      "properties": {
        "POINT_ID": "cf687e0c-1068-4f3d-b17e-31edf34c5fc9",
        "LEVEL_ID": "5a79843e-2b93-4173-8b62-f77c5520cb41",
        "CATEGORY": "Restroom"
      },
      "geometry": {
        "type": "Point",
        "coordinates": [
          -84.39242251390952,
          42.25039812903939
        ]
      }
    },
    {
      "type": "Feature",
      "properties": {
        "POINT_ID": "9ff1f15e-6cfa-46f9-aabc-398d3a2cb02e",
        "LEVEL_ID": "5a79843e-2b93-4173-8b62-f77c5520cb41",
        "CATEGORY": "Restroom"
      },
      "geometry": {
        "type": "Point",
        "coordinates": [
          -84.39224161452796,
          42.25043123714551
        ]
      }
    },
    {
      "type": "Feature",
      "properties": {
        "POINT_ID": "b05c90ed-c62a-4a69-98e1-019075d237ca",
        "LEVEL_ID": "5a79843e-2b93-4173-8b62-f77c5520cb41",
        "CATEGORY": "Stairs"
      },
      "geometry": {
        "type": "Point",
        "coordinates": [
          -84.3924253909233,
          42.250312786389784
        ]
      }
    },
    {
      "type": "Feature",
      "properties": {
        "POINT_ID": "9f375b23-fea0-4dee-874a-b044807e83d3",
        "LEVEL_ID": "5a79843e-2b93-4173-8b62-f77c5520cb41",
        "CATEGORY": "Restroom"
      },
      "geometry": {
        "type": "Point",
        "coordinates": [
          -84.39249878554807,
          42.250497238448624
        ]
      }
    },
    {
      "type": "Feature",
      "properties": {
        "POINT_ID": "acb181c5-b7c6-4991-aedc-bebc9dadcd4c",
        "LEVEL_ID": "5a79843e-2b93-4173-8b62-f77c5520cb41",
        "CATEGORY": "Restroom"
      },
      "geometry": {
        "type": "Point",
        "coordinates": [
          -84.39196107788851,
          42.25079916192733
        ]
      }
    },
    {
      "type": "Feature",
      "properties": {
        "POINT_ID": "e5a2a427-d1cc-4a69-b82f-017d05f9677d",
        "LEVEL_ID": "5a79843e-2b93-4173-8b62-f77c5520cb41",
        "CATEGORY": "Restroom"
      },
      "geometry": {
        "type": "Point",
        "coordinates": [
          -84.3920128757934,
          42.25078660902012
        ]
      }
    },
    {
      "type": "Feature",
      "properties": {
        "POINT_ID": "72ba60a4-d0b9-43a2-afc7-739d38945648",
        "LEVEL_ID": "5a79843e-2b93-4173-8b62-f77c5520cb41",
        "CATEGORY": "Restroom"
      },
      "geometry": {
        "type": "Point",
        "coordinates": [
          -84.3923094949752,
          42.250668160975295
        ]
      }
    },
    {
      "type": "Feature",
      "properties": {
        "POINT_ID": "b4c75799-5937-497e-a3c4-a7baf070d5a7",
        "LEVEL_ID": "5a79843e-2b93-4173-8b62-f77c5520cb41",
        "CATEGORY": "Restroom"
      },
      "geometry": {
        "type": "Point",
        "coordinates": [
          -84.39209260461124,
          42.25075347020628
        ]
      }
    },
    {
      "type": "Feature",
      "properties": {
        "POINT_ID": "52624225-c16b-4a15-b8a7-4f2cbc762512",
        "LEVEL_ID": "5a79843e-2b93-4173-8b62-f77c5520cb41",
        "CATEGORY": "Restroom"
      },
      "geometry": {
        "type": "Point",
        "coordinates": [
          -84.3921585723427,
          42.25074124729731
        ]
      }
    },
    {
      "type": "Feature",
      "properties": {
        "POINT_ID": "f0fdc1a6-2ea4-4b72-8d45-c60e26db6799",
        "LEVEL_ID": "5a79843e-2b93-4173-8b62-f77c5520cb41",
        "CATEGORY": "Restroom",
        "ANCHORID": "b0d0a89d-4adb-4bd7-bd7f-ada739376ef0"
      },
      "geometry": {
        "type": "Point",
        "coordinates": [
          -84.39174035487345,
          42.25076915797266
        ]
      }
    },
    {
      "type": "Feature",
      "properties": {
        "POINT_ID": "7528f847-ef9f-4e9f-83a8-2eaad0c26e16",
        "LEVEL_ID": "5a79843e-2b93-4173-8b62-f77c5520cb41",
        "CATEGORY": "Restroom",
        "ANCHORID": "55cf9727-b787-42ba-bf4a-9a5a16008966"
      },
      "geometry": {
        "type": "Point",
        "coordinates": [
          -84.3922949687161,
          42.2508503133046
        ]
      }
    },
    {
      "type": "Feature",
      "properties": {
        "POINT_ID": "7e9b57c6-5657-4124-aed4-b7def1d42767",
        "LEVEL_ID": "5a79843e-2b93-4173-8b62-f77c5520cb41",
        "CATEGORY": "Restroom"
      },
      "geometry": {
        "type": "Point",
        "coordinates": [
          -84.39299935119969,
          42.25062646092448
        ]
      }
    },
    {
      "type": "Feature",
      "properties": {
        "POINT_ID": "58711c91-d6bd-41f5-ae45-ffbe72ce8e5f",
        "LEVEL_ID": "5a79843e-2b93-4173-8b62-f77c5520cb41",
        "CATEGORY": "Restroom"
      },
      "geometry": {
        "type": "Point",
        "coordinates": [
          -84.39311251243143,
          42.25059595358943
        ]
      }
    },
    {
      "type": "Feature",
      "properties": {
        "POINT_ID": "a49a37cf-f79f-4f8e-88fb-3957a48cbc21",
        "LEVEL_ID": "5a79843e-2b93-4173-8b62-f77c5520cb41",
        "CATEGORY": "Restroom"
      },
      "geometry": {
        "type": "Point",
        "coordinates": [
          -84.39235169983199,
          42.25114351027703
        ]
      }
    },
    {
      "type": "Feature",
      "properties": {
        "POINT_ID": "cb62bf3c-00f8-47eb-9631-6ff8efea06c5",
        "LEVEL_ID": "5a79843e-2b93-4173-8b62-f77c5520cb41",
        "CATEGORY": "Restroom"
      },
      "geometry": {
        "type": "Point",
        "coordinates": [
          -84.39262202606297,
          42.251099623122094
        ]
      }
    },
    {
      "type": "Feature",
      "properties": {
        "POINT_ID": "6ce15ca8-fd11-4f13-9978-a2c6823e0754",
        "LEVEL_ID": "5a79843e-2b93-4173-8b62-f77c5520cb41",
        "CATEGORY": "Restroom"
      },
      "geometry": {
        "type": "Point",
        "coordinates": [
          -84.39259491456605,
          42.2510250356101
        ]
      }
    },
    {
      "type": "Feature",
      "properties": {
        "POINT_ID": "22c99ca6-e036-4079-8dc2-5434d45efd62",
        "LEVEL_ID": "5a79843e-2b93-4173-8b62-f77c5520cb41",
        "CATEGORY": "Restroom"
      },
      "geometry": {
        "type": "Point",
        "coordinates": [
          -84.39337572487779,
          42.25089039468973
        ]
      }
    },
    {
      "type": "Feature",
      "properties": {
        "POINT_ID": "11a9d10b-c5ac-46fb-9a04-4061e67707c9",
        "LEVEL_ID": "5a79843e-2b93-4173-8b62-f77c5520cb41",
        "CATEGORY": "Restroom"
      },
      "geometry": {
        "type": "Point",
        "coordinates": [
          -84.39307456910075,
          42.25086989881399
        ]
      }
    },
    {
      "type": "Feature",
      "properties": {
        "POINT_ID": "8e7c926f-00e8-48b2-8ab4-7769576739e5",
        "LEVEL_ID": "5a79843e-2b93-4173-8b62-f77c5520cb41",
        "CATEGORY": "Restroom"
      },
      "geometry": {
        "type": "Point",
        "coordinates": [
          -84.39319055533866,
          42.25074663181031
        ]
      }
    },
    {
      "type": "Feature",
      "properties": {
        "POINT_ID": "a0009df4-6b05-4206-b1a3-955e92d7e322",
        "LEVEL_ID": "5a79843e-2b93-4173-8b62-f77c5520cb41",
        "CATEGORY": "Elevator",
        "ID": "6b68fcba-3a38-45de-a2c3-d25e323e3595"
      },
      "geometry": {
        "type": "Point",
        "coordinates": [
          -84.39269381034521,
          42.2506863442251
        ]
      }
    },
    {
      "type": "Feature",
      "properties": {
        "POINT_ID": "12943dd4-2eba-408c-82ca-797989b687c7",
        "LEVEL_ID": "5a79843e-2b93-4173-8b62-f77c5520cb41",
        "CATEGORY": "Elevator",
        "ID": "ea7d0dfc-c7d9-4eb8-9553-c0750de64319"
      },
      "geometry": {
        "type": "Point",
        "coordinates": [
          -84.39262800460787,
          42.250712585045186
        ]
      }
    },
    {
      "type": "Feature",
      "properties": {
        "POINT_ID": "331c0989-5b1b-4786-bf7b-3e345d5c5b93",
        "LEVEL_ID": "5a79843e-2b93-4173-8b62-f77c5520cb41",
        "CATEGORY": "Elevator",
        "ID": "5c4420b4-d156-4dcc-8338-e3f7646f6ed4"
      },
      "geometry": {
        "type": "Point",
        "coordinates": [
          -84.39266995504063,
          42.25075738798157
        ]
      }
    },
    {
      "type": "Feature",
      "properties": {
        "POINT_ID": "86d5be36-e3fe-4d04-bc79-66c92fad8d90",
        "LEVEL_ID": "5a79843e-2b93-4173-8b62-f77c5520cb41",
        "CATEGORY": "Stairs",
        "ID": "6ea22875-6347-4066-bef2-6e657bfdb4fb"
      },
      "geometry": {
        "type": "Point",
        "coordinates": [
          -84.39268793607224,
          42.25072695145134
        ]
      }
    },
    {
      "type": "Feature",
      "properties": {
        "POINT_ID": "88f22213-32eb-4263-b2f8-c0c29e239ef9",
        "LEVEL_ID": "5a79843e-2b93-4173-8b62-f77c5520cb41",
        "CATEGORY": "Stairs"
      },
      "geometry": {
        "type": "Point",
        "coordinates": [
          -84.3935014718276,
          42.25117069781399
        ]
      }
    },
    {
      "type": "Feature",
      "properties": {
        "POINT_ID": "8b02d635-b465-408f-9598-045920baf88a",
        "LEVEL_ID": "5a79843e-2b93-4173-8b62-f77c5520cb41",
        "CATEGORY": "Stairs",
        "ID": "6ead174e-7b53-40b4-a55c-3ac1559f14c1"
      },
      "geometry": {
        "type": "Point",
        "coordinates": [
          -84.39320641486036,
          42.2505748318097
        ]
      }
    },
    {
      "type": "Feature",
      "properties": {
        "POINT_ID": "8dfff0a6-0d0b-4c88-a883-cb4ac841515b",
        "LEVEL_ID": "5a79843e-2b93-4173-8b62-f77c5520cb41",
        "CATEGORY": "Stairs",
        "ID": "3d94a568-712e-4479-a47a-8c87dc370eb8"
      },
      "geometry": {
        "type": "Point",
        "coordinates": [
          -84.39206488124783,
          42.25088861155264
        ]
      }
    },
    {
      "type": "Feature",
      "properties": {
        "POINT_ID": "e222bb2c-0b51-4b4d-aba3-2aedcf20d112",
        "LEVEL_ID": "5a79843e-2b93-4173-8b62-f77c5520cb41",
        "CATEGORY": "Elevator",
        "ID": "66a5f37d-d2df-4873-a56d-a65a627c72b1"
      },
      "geometry": {
        "type": "Point",
        "coordinates": [
          -84.3930714528962,
          42.25076825500517
        ]
      }
    },
    {
      "type": "Feature",
      "properties": {
        "POINT_ID": "31d93158-374b-4803-9845-ea39089e2442",
        "LEVEL_ID": "5a79843e-2b93-4173-8b62-f77c5520cb41",
        "CATEGORY": "Elevator",
        "ID": "2e7b30ad-487d-4dca-a56f-d165996b961f"
      },
      "geometry": {
        "type": "Point",
        "coordinates": [
          -84.39329965473344,
          42.25069239250341
        ]
      }
    },
    {
      "type": "Feature",
      "properties": {
        "POINT_ID": "8d4cd9cc-445b-49d8-a9f7-a98fae924dd4",
        "LEVEL_ID": "5a79843e-2b93-4173-8b62-f77c5520cb41",
        "CATEGORY": "Stairs",
        "ID": "9ffa6469-505f-4448-b980-f2039d8b9c42"
      },
      "geometry": {
        "type": "Point",
        "coordinates": [
          -84.3933138528871,
          42.25073690303121
        ]
      }
    },
    {
      "type": "Feature",
      "properties": {
        "POINT_ID": "e8d69c6b-6255-4f39-be4f-6bf79ec298f6",
        "LEVEL_ID": "5a79843e-2b93-4173-8b62-f77c5520cb41",
        "CATEGORY": "Restroom"
      },
      "geometry": {
        "type": "Point",
        "coordinates": [
          -84.39243481298008,
          42.25098293593463
        ]
      }
    },
    {
      "type": "Feature",
      "properties": {
        "POINT_ID": "5151ad2c-0812-4301-bd70-521e07b760b7",
        "LEVEL_ID": "5a79843e-2b93-4173-8b62-f77c5520cb41",
        "CATEGORY": "Restroom"
      },
      "geometry": {
        "type": "Point",
        "coordinates": [
          -84.39294496687367,
          42.25083927499804
        ]
      }
    },
    {
      "type": "Feature",
      "properties": {
        "POINT_ID": "07ada14a-0cf9-4a37-a616-5d1ba8ec5b92",
        "LEVEL_ID": "5a79843e-2b93-4173-8b62-f77c5520cb41",
        "CATEGORY": "Restroom"
      },
      "geometry": {
        "type": "Point",
        "coordinates": [
          -84.39333596418452,
          42.25093731369989
        ]
      }
    },
    {
      "type": "Feature",
      "properties": {
        "POINT_ID": "9cd50280-e8b1-4745-82e6-074d9a534fcb",
        "LEVEL_ID": "5a79843e-2b93-4173-8b62-f77c5520cb41",
        "CATEGORY": "Restroom"
      },
      "geometry": {
        "type": "Point",
        "coordinates": [
          -84.39222449856439,
          42.25094967403315
        ]
      }
    },
    {
      "type": "Feature",
      "properties": {
        "POINT_ID": "73932d53-41ee-40fb-a34e-4e9ae5a458bf",
        "LEVEL_ID": "5a79843e-2b93-4173-8b62-f77c5520cb41",
        "CATEGORY": "Restroom"
      },
      "geometry": {
        "type": "Point",
        "coordinates": [
          -84.39251283572331,
          42.2508600561823
        ]
      }
    },
    {
      "type": "Feature",
      "properties": {
        "POINT_ID": "bd5726e2-20fb-4b2c-9fab-374fc3a9fe40",
        "LEVEL_ID": "5a79843e-2b93-4173-8b62-f77c5520cb41",
        "CATEGORY": "Restroom"
      },
      "geometry": {
        "type": "Point",
        "coordinates": [
          -84.3932775022981,
          42.250729287435455
        ]
      }
    },
    {
      "type": "Feature",
      "properties": {
        "POINT_ID": "742f03bf-8cfa-4af2-bf19-af31bfcc4033",
        "LEVEL_ID": "5a79843e-2b93-4173-8b62-f77c5520cb41",
        "CATEGORY": "Restroom",
        "SUB_CAT": "Changing"
      },
      "geometry": {
        "type": "Point",
        "coordinates": [
          -84.39314852801311,
          42.250805482639755
        ]
      }
    },
    {
      "type": "Feature",
      "properties": {
        "POINT_ID": "4894abc4-bbfa-4180-bd08-03356ffaf298",
        "LEVEL_ID": "5a79843e-2b93-4173-8b62-f77c5520cb41",
        "CATEGORY": "Restroom",
        "SUB_CAT": "Changing"
      },
      "geometry": {
        "type": "Point",
        "coordinates": [
          -84.39321597031497,
          42.25079178378523
        ]
      }
    },
    {
      "type": "Feature",
      "properties": {
        "POINT_ID": "9665d78b-8c00-4d37-8d62-b5542056d206",
        "LEVEL_ID": "5a79843e-2b93-4173-8b62-f77c5520cb41",
        "CATEGORY": "Restroom"
      },
      "geometry": {
        "type": "Point",
        "coordinates": [
          -84.39318354859329,
          42.25079741140644
        ]
      }
    },
    {
      "type": "Feature",
      "properties": {
        "POINT_ID": "6ccfec25-c70c-417b-a6cc-b954cc0eb8c4",
        "LEVEL_ID": "5a79843e-2b93-4173-8b62-f77c5520cb41",
        "CATEGORY": "Restroom",
        "SUB_CAT": "Male"
      },
      "geometry": {
        "type": "Point",
        "coordinates": [
          -84.39239335764653,
          42.25034398951331
        ]
      }
    },
    {
      "type": "Feature",
      "properties": {
        "POINT_ID": "c0c17e81-43a3-4128-bcec-fe4c5e0adc69",
        "LEVEL_ID": "5a79843e-2b93-4173-8b62-f77c5520cb41",
        "CATEGORY": "Restroom",
        "SUB_CAT": "Female"
      },
      "geometry": {
        "type": "Point",
        "coordinates": [
          -84.39226736145469,
          42.2502945786113
        ]
      }
    },
    {
      "type": "Feature",
      "properties": {
        "POINT_ID": "203136f8-1af5-49f4-94a3-b9752c98def6",
        "LEVEL_ID": "5a79843e-2b93-4173-8b62-f77c5520cb41",
        "CATEGORY": "Restroom"
      },
      "geometry": {
        "type": "Point",
        "coordinates": [
          -84.39228293376638,
          42.250340132135705
        ]
      }
    },
    {
      "type": "Feature",
      "properties": {
        "POINT_ID": "8a7d6834-6081-42fb-88e9-bad7150c11ae",
        "LEVEL_ID": "5a79843e-2b93-4173-8b62-f77c5520cb41",
        "CATEGORY": "Restroom"
      },
      "geometry": {
        "type": "Point",
        "coordinates": [
          -84.39216842388498,
          42.25053075409061
        ]
      }
    },
    {
      "type": "Feature",
      "properties": {
        "POINT_ID": "61ec2ec9-0529-4c0e-9303-86843187fb31",
        "LEVEL_ID": "5a79843e-2b93-4173-8b62-f77c5520cb41",
        "CATEGORY": "Restroom"
      },
      "geometry": {
        "type": "Point",
        "coordinates": [
          -84.39169531568116,
          42.25062758962199
        ]
      }
    },
    {
      "type": "Feature",
      "properties": {
        "POINT_ID": "c0940867-897a-4ec0-884b-2380d05fbab0",
        "LEVEL_ID": "5a79843e-2b93-4173-8b62-f77c5520cb41",
        "CATEGORY": "Restroom"
      },
      "geometry": {
        "type": "Point",
        "coordinates": [
          -84.39193544570101,
          42.25060637661375
        ]
      }
    },
    {
      "type": "Feature",
      "properties": {
        "POINT_ID": "a50b2784-2f21-4151-9d09-b35bdf435b18",
        "LEVEL_ID": "5a79843e-2b93-4173-8b62-f77c5520cb41",
        "CATEGORY": "Restroom"
      },
      "geometry": {
        "type": "Point",
        "coordinates": [
          -84.3930440208992,
          42.2509936731959
        ]
      }
    },
    {
      "type": "Feature",
      "properties": {
        "POINT_ID": "a30c19f2-1312-4702-b54b-7a0d39dc78ae",
        "LEVEL_ID": "5a79843e-2b93-4173-8b62-f77c5520cb41",
        "CATEGORY": "Restroom",
        "SUB_CAT": "Changing"
      },
      "geometry": {
        "type": "Point",
        "coordinates": [
          -84.39308665456953,
          42.25098357725995
        ]
      }
    },
    {
      "type": "Feature",
      "properties": {
        "POINT_ID": "d44ce4eb-3f38-4d10-830c-a86d42986a22",
        "LEVEL_ID": "5a79843e-2b93-4173-8b62-f77c5520cb41",
        "CATEGORY": "Restroom"
      },
      "geometry": {
        "type": "Point",
        "coordinates": [
          -84.39231051536777,
          42.25099911557505
        ]
      }
    },
    {
      "type": "Feature",
      "properties": {
        "POINT_ID": "e98808f9-994c-42f6-aad9-2bc4aaadfd91",
        "LEVEL_ID": "5a79843e-2b93-4173-8b62-f77c5520cb41",
        "CATEGORY": "Restroom"
      },
      "geometry": {
        "type": "Point",
        "coordinates": [
          -84.39252094575036,
          42.250786407329336
        ]
      }
    },
    {
      "type": "Feature",
      "properties": {
        "POINT_ID": "a545497d-516c-48b8-8427-8e815e1820f3",
        "LEVEL_ID": "5a79843e-2b93-4173-8b62-f77c5520cb41",
        "CATEGORY": "Restroom"
      },
      "geometry": {
        "type": "Point",
        "coordinates": [
          -84.39276874754152,
          42.25095808277654
        ]
      }
    },
    {
      "type": "Feature",
      "properties": {
        "POINT_ID": "f62b4c3f-5eed-4c55-99e6-47cc860b3693",
        "LEVEL_ID": "5a79843e-2b93-4173-8b62-f77c5520cb41",
        "CATEGORY": "Restroom",
        "ANCHORID": "798e2f5b-3aee-4daa-93d7-4966098e4222",
        "SUB_CAT": "Changing"
      },
      "geometry": {
        "type": "Point",
        "coordinates": [
          -84.39288948761317,
          42.25093026998683
        ]
      }
    },
    {
      "type": "Feature",
      "properties": {
        "POINT_ID": "fa06204b-e485-4eb7-90f4-073f7e3347f7",
        "LEVEL_ID": "f68ab6b6-e564-4111-9f88-ab4d92b60ddc",
        "CATEGORY": "Stairs"
      },
      "geometry": {
        "type": "Point",
        "coordinates": [
          -84.39284940609588,
          42.251158329332874
        ]
      }
    },
    {
      "type": "Feature",
      "properties": {
        "POINT_ID": "61e7fdc4-3bc7-4f21-abe0-c77f849a44ff",
        "LEVEL_ID": "f68ab6b6-e564-4111-9f88-ab4d92b60ddc",
        "CATEGORY": "Elevator"
      },
      "geometry": {
        "type": "Point",
        "coordinates": [
          -84.39329965473344,
          42.25069239250341
        ]
      }
    },
    {
      "type": "Feature",
      "properties": {
        "POINT_ID": "4638dcb8-aaaa-4169-ba12-26cd2b9ab273",
        "LEVEL_ID": "f68ab6b6-e564-4111-9f88-ab4d92b60ddc",
        "CATEGORY": "Stairs"
      },
      "geometry": {
        "type": "Point",
        "coordinates": [
          -84.3933138528871,
          42.25073690303121
        ]
      }
    },
    {
      "type": "Feature",
      "properties": {
        "POINT_ID": "6177fb35-35ae-407b-847e-9ff4e6b7ebd8",
        "LEVEL_ID": "f68ab6b6-e564-4111-9f88-ab4d92b60ddc",
        "CATEGORY": "Elevator"
      },
      "geometry": {
        "type": "Point",
        "coordinates": [
          -84.3930714528962,
          42.25076825500517
        ]
      }
    },
    {
      "type": "Feature",
      "properties": {
        "POINT_ID": "be69e596-529b-4fdc-864b-f1da207d4c87",
        "LEVEL_ID": "f68ab6b6-e564-4111-9f88-ab4d92b60ddc",
        "CATEGORY": "Restroom",
        "SUB_CAT": "Male"
      },
      "geometry": {
        "type": "Point",
        "coordinates": [
          -84.39280854106998,
          42.25103288329802
        ]
      }
    },
    {
      "type": "Feature",
      "properties": {
        "POINT_ID": "2f10ee1c-4134-4cf2-9942-169bbbbfbe86",
        "LEVEL_ID": "f68ab6b6-e564-4111-9f88-ab4d92b60ddc",
        "CATEGORY": "Restroom"
      },
      "geometry": {
        "type": "Point",
        "coordinates": [
          -84.39248924542969,
          42.25052986238997
        ]
      }
    },
    {
      "type": "Feature",
      "properties": {
        "POINT_ID": "0b80502c-1a46-433d-abc9-34a59f16783c",
        "LEVEL_ID": "f68ab6b6-e564-4111-9f88-ab4d92b60ddc",
        "CATEGORY": "Stairs"
      },
      "geometry": {
        "type": "Point",
        "coordinates": [
          -84.39242339054684,
          42.25030897201007
        ]
      }
    },
    {
      "type": "Feature",
      "properties": {
        "POINT_ID": "5c5fd584-1c0b-4fce-a18a-afef67be6f4e",
        "LEVEL_ID": "f68ab6b6-e564-4111-9f88-ab4d92b60ddc",
        "CATEGORY": "Restroom"
      },
      "geometry": {
        "type": "Point",
        "coordinates": [
          -84.39200532643814,
          42.250494651315606
        ]
      }
    },
    {
      "type": "Feature",
      "properties": {
        "POINT_ID": "eebda971-4b8a-4199-a71a-b82fb469da5d",
        "LEVEL_ID": "f68ab6b6-e564-4111-9f88-ab4d92b60ddc",
        "CATEGORY": "Stairs"
      },
      "geometry": {
        "type": "Point",
        "coordinates": [
          -84.39202528301865,
          42.25044633980553
        ]
      }
    },
    {
      "type": "Feature",
      "properties": {
        "POINT_ID": "55a82b70-6ee3-4d8a-acf7-12e7cc82a700",
        "LEVEL_ID": "f68ab6b6-e564-4111-9f88-ab4d92b60ddc",
        "CATEGORY": "Elevator"
      },
      "geometry": {
        "type": "Point",
        "coordinates": [
          -84.39266995504063,
          42.25075738798157
        ]
      }
    },
    {
      "type": "Feature",
      "properties": {
        "POINT_ID": "da8c9e3f-53b7-435d-a2ac-30872e05aed3",
        "LEVEL_ID": "f68ab6b6-e564-4111-9f88-ab4d92b60ddc",
        "CATEGORY": "Elevator"
      },
      "geometry": {
        "type": "Point",
        "coordinates": [
          -84.39262800460787,
          42.250712585045186
        ]
      }
    },
    {
      "type": "Feature",
      "properties": {
        "POINT_ID": "5f5c1706-bbda-427a-ac73-394246200bc5",
        "LEVEL_ID": "f68ab6b6-e564-4111-9f88-ab4d92b60ddc",
        "CATEGORY": "Elevator"
      },
      "geometry": {
        "type": "Point",
        "coordinates": [
          -84.39269381034521,
          42.2506863442251
        ]
      }
    },
    {
      "type": "Feature",
      "properties": {
        "POINT_ID": "debfba9c-ad5d-4a45-8daa-92b31ec7c29a",
        "LEVEL_ID": "f68ab6b6-e564-4111-9f88-ab4d92b60ddc",
        "CATEGORY": "Stairs"
      },
      "geometry": {
        "type": "Point",
        "coordinates": [
          -84.39268793607224,
          42.25072695145134
        ]
      }
    },
    {
      "type": "Feature",
      "properties": {
        "POINT_ID": "f7644b4e-3d32-4c57-9135-851869168dcd",
        "LEVEL_ID": "f68ab6b6-e564-4111-9f88-ab4d92b60ddc",
        "CATEGORY": "Stairs"
      },
      "geometry": {
        "type": "Point",
        "coordinates": [
          -84.39206488124783,
          42.25088861155264
        ]
      }
    },
    {
      "type": "Feature",
      "properties": {
        "POINT_ID": "2375520c-710d-4f25-825c-e653b9958acd",
        "LEVEL_ID": "f68ab6b6-e564-4111-9f88-ab4d92b60ddc",
        "CATEGORY": "Stairs"
      },
      "geometry": {
        "type": "Point",
        "coordinates": [
          -84.39223674706226,
          42.2516711621335
        ]
      }
    },
    {
      "type": "Feature",
      "properties": {
        "POINT_ID": "7462b333-9131-4c62-afae-bfa42cfd9c0c",
        "LEVEL_ID": "f68ab6b6-e564-4111-9f88-ab4d92b60ddc",
        "CATEGORY": "Stairs"
      },
      "geometry": {
        "type": "Point",
        "coordinates": [
          -84.3922599792733,
          42.25150759265107
        ]
      }
    },
    {
      "type": "Feature",
      "properties": {
        "POINT_ID": "f4b3f636-c70e-469f-a2cd-41c9e94d155b",
        "LEVEL_ID": "f68ab6b6-e564-4111-9f88-ab4d92b60ddc",
        "CATEGORY": "Stairs",
        "ID": "04ef2afa-cf33-4ad0-bbed-60e4563d5c62"
      },
      "geometry": {
        "type": "Point",
        "coordinates": [
          -84.39320641486036,
          42.2505748318097
        ]
      }
    },
    {
      "type": "Feature",
      "properties": {
        "POINT_ID": "1c0f0d1c-64a6-4fff-b79f-7b495624ad49",
        "LEVEL_ID": "f68ab6b6-e564-4111-9f88-ab4d92b60ddc",
        "CATEGORY": "Elevator",
        "ID": "77f38588-ac10-4f45-a813-71ef6c916a0c"
      },
      "geometry": {
        "type": "Point",
        "coordinates": [
          -84.39208647930884,
          42.25043626341185
        ]
      }
    },
    {
      "type": "Feature",
      "properties": {
        "POINT_ID": "f8497bf5-87bf-4701-81c2-99615b00293a",
        "LEVEL_ID": "f68ab6b6-e564-4111-9f88-ab4d92b60ddc",
        "CATEGORY": "Restroom"
      },
      "geometry": {
        "type": "Point",
        "coordinates": [
          -84.39221116931839,
          42.250439702692944
        ]
      }
    },
    {
      "type": "Feature",
      "properties": {
        "POINT_ID": "719ae25f-31e1-47b4-adb0-64acafbc7ac0",
        "LEVEL_ID": "f68ab6b6-e564-4111-9f88-ab4d92b60ddc",
        "CATEGORY": "Restroom"
      },
      "geometry": {
        "type": "Point",
        "coordinates": [
          -84.39270461652167,
          42.25098883644681
        ]
      }
    },
    {
      "type": "Feature",
      "properties": {
        "POINT_ID": "d91290ca-b7db-4db9-8e9f-0adce68911ab",
        "LEVEL_ID": "f68ab6b6-e564-4111-9f88-ab4d92b60ddc",
        "CATEGORY": "Restroom"
      },
      "geometry": {
        "type": "Point",
        "coordinates": [
          -84.39268764070368,
          42.25094700100805
        ]
      }
    },
    {
      "type": "Feature",
      "properties": {
        "POINT_ID": "a350d0b5-139c-495b-a999-5b1f782b27a2",
        "LEVEL_ID": "f68ab6b6-e564-4111-9f88-ab4d92b60ddc",
        "CATEGORY": "Restroom"
      },
      "geometry": {
        "type": "Point",
        "coordinates": [
          -84.39261329790077,
          42.25087748265986
        ]
      }
    },
    {
      "type": "Feature",
      "properties": {
        "POINT_ID": "f53a2935-c4c9-4920-a759-48f0e0a8a765",
        "LEVEL_ID": "f68ab6b6-e564-4111-9f88-ab4d92b60ddc",
        "CATEGORY": "Restroom"
      },
      "geometry": {
        "type": "Point",
        "coordinates": [
          -84.3925628089918,
          42.250620256973804
        ]
      }
    },
    {
      "type": "Feature",
      "properties": {
        "POINT_ID": "61b38394-b85d-4ee9-a946-3e64ef06fcac",
        "LEVEL_ID": "f68ab6b6-e564-4111-9f88-ab4d92b60ddc",
        "CATEGORY": "Stairs"
      },
      "geometry": {
        "type": "Point",
        "coordinates": [
          -84.39350384630887,
          42.25117043070376
        ]
      }
    },
    {
      "type": "Feature",
      "properties": {
        "POINT_ID": "d5f15119-8437-4ecc-bdc8-77b46bfdab3d",
        "LEVEL_ID": "f68ab6b6-e564-4111-9f88-ab4d92b60ddc",
        "CATEGORY": "Stairs"
      },
      "geometry": {
        "type": "Point",
        "coordinates": [
          -84.39227613535108,
          42.25138543280171
        ]
      }
    },
    {
      "type": "Feature",
      "properties": {
        "POINT_ID": "07e78768-a91f-46c1-9d30-62865f325a07",
        "LEVEL_ID": "f68ab6b6-e564-4111-9f88-ab4d92b60ddc",
        "CATEGORY": "Stairs"
      },
      "geometry": {
        "type": "Point",
        "coordinates": [
          -84.39235872704039,
          42.251472386315044
        ]
      }
    },
    {
      "type": "Feature",
      "properties": {
        "POINT_ID": "4511f513-2f60-474f-8737-cbc5c65918fe",
        "LEVEL_ID": "f68ab6b6-e564-4111-9f88-ab4d92b60ddc",
        "CATEGORY": "Restroom",
        "SUB_CAT": "Female"
      },
      "geometry": {
        "type": "Point",
        "coordinates": [
          -84.39274177954967,
          42.250822734549196
        ]
      }
    },
    {
      "type": "Feature",
      "properties": {
        "POINT_ID": "1e0cd0a1-2fa9-4d08-a96d-53ab1c32bbb1",
        "LEVEL_ID": "f68ab6b6-e564-4111-9f88-ab4d92b60ddc",
        "CATEGORY": "Restroom"
      },
      "geometry": {
        "type": "Point",
        "coordinates": [
          -84.39258948747276,
          42.250686664123336
        ]
      }
    },
    {
      "type": "Feature",
      "properties": {
        "POINT_ID": "a591ef62-6aac-4e7c-808a-69d42d510e26",
        "LEVEL_ID": "f68ab6b6-e564-4111-9f88-ab4d92b60ddc",
        "CATEGORY": "Elevator"
      },
      "geometry": {
        "type": "Point",
        "coordinates": [
          -84.3926850220427,
          42.25084821494699
        ]
      }
    },
    {
      "type": "Feature",
      "properties": {
        "POINT_ID": "a57c2190-bb62-4a46-8915-578738ac1d30",
        "LEVEL_ID": "04f7de24-c145-41c5-9614-fbc83241b698",
        "CATEGORY": "Stairs"
      },
      "geometry": {
        "type": "Point",
        "coordinates": [
          -84.39242339054684,
          42.25030897201007
        ]
      }
    },
    {
      "type": "Feature",
      "properties": {
        "POINT_ID": "23439258-e2b0-4bf0-9cc5-556d3ff550c2",
        "LEVEL_ID": "04f7de24-c145-41c5-9614-fbc83241b698",
        "CATEGORY": "Stairs"
      },
      "geometry": {
        "type": "Point",
        "coordinates": [
          -84.3935014718276,
          42.25117069781399
        ]
      }
    },
    {
      "type": "Feature",
      "properties": {
        "POINT_ID": "dd8fe8b6-5412-40c5-a61c-d85b89e0351a",
        "LEVEL_ID": "04f7de24-c145-41c5-9614-fbc83241b698",
        "CATEGORY": "Stairs"
      },
      "geometry": {
        "type": "Point",
        "coordinates": [
          -84.39206488124783,
          42.25088861155264
        ]
      }
    },
    {
      "type": "Feature",
      "properties": {
        "POINT_ID": "cfda9971-742c-4ae0-8b79-31657ab09dc9",
        "LEVEL_ID": "04f7de24-c145-41c5-9614-fbc83241b698",
        "CATEGORY": "Stairs"
      },
      "geometry": {
        "type": "Point",
        "coordinates": [
          -84.39284940609588,
          42.251158329332874
        ]
      }
    },
    {
      "type": "Feature",
      "properties": {
        "POINT_ID": "b83cd67b-5fbe-4713-8483-2b595e717908",
        "LEVEL_ID": "04f7de24-c145-41c5-9614-fbc83241b698",
        "CATEGORY": "Restroom",
        "SUB_CAT": "Female"
      },
      "geometry": {
        "type": "Point",
        "coordinates": [
          -84.39266316099392,
          42.25086995717683
        ]
      }
    },
    {
      "type": "Feature",
      "properties": {
        "POINT_ID": "2fcf3395-e19c-49a6-9f44-05896c18b710",
        "LEVEL_ID": "04f7de24-c145-41c5-9614-fbc83241b698",
        "CATEGORY": "Stairs"
      },
      "geometry": {
        "type": "Point",
        "coordinates": [
          -84.3922440210143,
          42.251672298653666
        ]
      }
    },
    {
      "type": "Feature",
      "properties": {
        "POINT_ID": "e52ce4a1-576f-448c-87fd-0d70195a047a",
        "LEVEL_ID": "04f7de24-c145-41c5-9614-fbc83241b698",
        "CATEGORY": "Restroom",
        "SUB_CAT": "Male"
      },
      "geometry": {
        "type": "Point",
        "coordinates": [
          -84.39236873586398,
          42.251634009872795
        ]
      }
    },
    {
      "type": "Feature",
      "properties": {
        "POINT_ID": "55b75475-991b-4e53-8653-6026744d6b66",
        "LEVEL_ID": "04f7de24-c145-41c5-9614-fbc83241b698",
        "CATEGORY": "Restroom",
        "SUB_CAT": "Female"
      },
      "geometry": {
        "type": "Point",
        "coordinates": [
          -84.39240631990022,
          42.25162676566537
        ]
      }
    },
    {
      "type": "Feature",
      "properties": {
        "POINT_ID": "f4ea886c-0911-4d0f-b690-5cce4f996a0d",
        "LEVEL_ID": "04f7de24-c145-41c5-9614-fbc83241b698",
        "CATEGORY": "Stairs"
      },
      "geometry": {
        "type": "Point",
        "coordinates": [
          -84.392241693877,
          42.25150885359523
        ]
      }
    },
    {
      "type": "Feature",
      "properties": {
        "POINT_ID": "52295319-d158-40b5-9f10-971a8feb60d4",
        "LEVEL_ID": "04f7de24-c145-41c5-9614-fbc83241b698",
        "CATEGORY": "Restroom"
      },
      "geometry": {
        "type": "Point",
        "coordinates": [
          -84.39328548045593,
          42.25090068227339
        ]
      }
    },
    {
      "type": "Feature",
      "properties": {
        "POINT_ID": "aad488c5-fcef-45bf-b52e-2ea85fef83e0",
        "LEVEL_ID": "04f7de24-c145-41c5-9614-fbc83241b698",
        "CATEGORY": "Elevator",
        "ID": "a5466729-688b-4d46-85e0-7e7b91cab972"
      },
      "geometry": {
        "type": "Point",
        "coordinates": [
          -84.3930714528962,
          42.25076825500517
        ]
      }
    },
    {
      "type": "Feature",
      "properties": {
        "POINT_ID": "4d2fcf6a-d5bb-42c1-be70-66c3fb34dff8",
        "LEVEL_ID": "04f7de24-c145-41c5-9614-fbc83241b698",
        "CATEGORY": "Elevator",
        "ID": "7e386d30-1e82-45da-b935-485f7532dbe7"
      },
      "geometry": {
        "type": "Point",
        "coordinates": [
          -84.39266995504063,
          42.25075738798157
        ]
      }
    },
    {
      "type": "Feature",
      "properties": {
        "POINT_ID": "5eab6910-7808-4cec-bd72-48be33d15ca9",
        "LEVEL_ID": "04f7de24-c145-41c5-9614-fbc83241b698",
        "CATEGORY": "Elevator",
        "ID": "2491b1d8-a79c-48a3-9d51-06b0141939b6"
      },
      "geometry": {
        "type": "Point",
        "coordinates": [
          -84.39269381034521,
          42.2506863442251
        ]
      }
    },
    {
      "type": "Feature",
      "properties": {
        "POINT_ID": "f3a61727-cb7a-46ef-8f67-2124d791e8a3",
        "LEVEL_ID": "04f7de24-c145-41c5-9614-fbc83241b698",
        "CATEGORY": "Elevator",
        "ID": "45e486c9-6254-4210-abf1-6dcffcf74a09"
      },
      "geometry": {
        "type": "Point",
        "coordinates": [
          -84.39262800460787,
          42.250712585045186
        ]
      }
    },
    {
      "type": "Feature",
      "properties": {
        "POINT_ID": "6412a68e-047f-4869-b2ca-fbac29dab739",
        "LEVEL_ID": "04f7de24-c145-41c5-9614-fbc83241b698",
        "CATEGORY": "Stairs"
      },
      "geometry": {
        "type": "Point",
        "coordinates": [
          -84.39268793607224,
          42.25072695145134
        ]
      }
    },
    {
      "type": "Feature",
      "properties": {
        "POINT_ID": "19110961-3c3d-4fe8-82d2-3e9d15c49ae0",
        "LEVEL_ID": "04f7de24-c145-41c5-9614-fbc83241b698",
        "CATEGORY": "Restroom"
      },
      "geometry": {
        "type": "Point",
        "coordinates": [
          -84.39261910217961,
          42.2506829741056
        ]
      }
    },
    {
      "type": "Feature",
      "properties": {
        "POINT_ID": "410fd4c0-e73f-4839-8ff5-b1a8f32e572e",
        "LEVEL_ID": "04f7de24-c145-41c5-9614-fbc83241b698",
        "CATEGORY": "Restroom"
      },
      "geometry": {
        "type": "Point",
        "coordinates": [
          -84.39245429741185,
          42.25061813969179
        ]
      }
    },
    {
      "type": "Feature",
      "properties": {
        "POINT_ID": "72901d52-462b-4a93-a1a8-867e715ce273",
        "LEVEL_ID": "04f7de24-c145-41c5-9614-fbc83241b698",
        "CATEGORY": "Restroom"
      },
      "geometry": {
        "type": "Point",
        "coordinates": [
          -84.39240154051723,
          42.250789314195735
        ]
      }
    },
    {
      "type": "Feature",
      "properties": {
        "POINT_ID": "8e62c855-4360-4c4c-baaa-e57d36343379",
        "LEVEL_ID": "04f7de24-c145-41c5-9614-fbc83241b698",
        "CATEGORY": "Stairs",
        "ID": "e9ae60e5-dfe6-402f-861b-a522777e37a1"
      },
      "geometry": {
        "type": "Point",
        "coordinates": [
          -84.39320641486036,
          42.2505748318097
        ]
      }
    },
    {
      "type": "Feature",
      "properties": {
        "POINT_ID": "bbe27973-1651-40ec-9b22-2a26dc471613",
        "LEVEL_ID": "04f7de24-c145-41c5-9614-fbc83241b698",
        "CATEGORY": "Restroom"
      },
      "geometry": {
        "type": "Point",
        "coordinates": [
          -84.39244853943116,
          42.25113195163668
        ]
      }
    },
    {
      "type": "Feature",
      "properties": {
        "POINT_ID": "f61be2b5-9177-4b0a-863a-a429ab3662ae",
        "LEVEL_ID": "04f7de24-c145-41c5-9614-fbc83241b698",
        "CATEGORY": "Restroom",
        "SUB_CAT": "Accessible"
      },
      "geometry": {
        "type": "Point",
        "coordinates": [
          -84.3926841117856,
          42.250827524959035
        ]
      }
    },
    {
      "type": "Feature",
      "properties": {
        "POINT_ID": "96550582-5005-47c5-88a6-190a71779199",
        "LEVEL_ID": "04f7de24-c145-41c5-9614-fbc83241b698",
        "CATEGORY": "Restroom"
      },
      "geometry": {
        "type": "Point",
        "coordinates": [
          -84.39257039683747,
          42.25130598573958
        ]
      }
    },
    {
      "type": "Feature",
      "properties": {
        "POINT_ID": "340e0868-8549-42d4-b0d6-c66c53bdea62",
        "LEVEL_ID": "04f7de24-c145-41c5-9614-fbc83241b698",
        "CATEGORY": "Restroom"
      },
      "geometry": {
        "type": "Point",
        "coordinates": [
          -84.3926626788964,
          42.251201653960415
        ]
      }
    },
    {
      "type": "Feature",
      "properties": {
        "POINT_ID": "627a8ff9-6965-47cb-8e40-629e146dde9a",
        "LEVEL_ID": "04f7de24-c145-41c5-9614-fbc83241b698",
        "CATEGORY": "Restroom",
        "SUB_CAT": "Male"
      },
      "geometry": {
        "type": "Point",
        "coordinates": [
          -84.39272920120503,
          42.250847060460366
        ]
      }
    },
    {
      "type": "Feature",
      "properties": {
        "POINT_ID": "b914239f-60de-484e-bd39-2291df9af00b",
        "LEVEL_ID": "04f7de24-c145-41c5-9614-fbc83241b698",
        "CATEGORY": "Stairs"
      },
      "geometry": {
        "type": "Point",
        "coordinates": [
          -84.39240327313948,
          42.25146473311432
        ]
      }
    },
    {
      "type": "Feature",
      "properties": {
        "POINT_ID": "4d5c6b14-d270-4845-abb8-14f3395c8392",
        "LEVEL_ID": "04f7de24-c145-41c5-9614-fbc83241b698",
        "CATEGORY": "Stairs"
      },
      "geometry": {
        "type": "Point",
        "coordinates": [
          -84.3933130035299,
          42.250735499719205
        ]
      }
    },
    {
      "type": "Feature",
      "properties": {
        "POINT_ID": "605ece01-5916-44c6-b258-2391982caa43",
        "LEVEL_ID": "04f7de24-c145-41c5-9614-fbc83241b698",
        "CATEGORY": "Stairs"
      },
      "geometry": {
        "type": "Point",
        "coordinates": [
          -84.39258309428396,
          42.25120098485619
        ]
      }
    },
    {
      "type": "Feature",
      "properties": {
        "POINT_ID": "6ef413dd-85d7-4c08-8757-b062ad11af6d",
        "LEVEL_ID": "04f7de24-c145-41c5-9614-fbc83241b698",
        "CATEGORY": "Stairs"
      },
      "geometry": {
        "type": "Point",
        "coordinates": [
          -84.3922780375575,
          42.25139371088896
        ]
      }
    },
    {
      "type": "Feature",
      "properties": {
        "POINT_ID": "3403ca85-512f-4827-987e-3b5e6768a895",
        "LEVEL_ID": "04f7de24-c145-41c5-9614-fbc83241b698",
        "CATEGORY": "Stairs"
      },
      "geometry": {
        "type": "Point",
        "coordinates": [
          -84.3926328581244,
          42.251341118170075
        ]
      }
    },
    {
      "type": "Feature",
      "properties": {
        "POINT_ID": "15d65e23-3a0f-4172-9b79-671e765d9994",
        "LEVEL_ID": "04f7de24-c145-41c5-9614-fbc83241b698",
        "CATEGORY": "Elevator"
      },
      "geometry": {
        "type": "Point",
        "coordinates": [
          -84.3926850220427,
          42.25084821494699
        ]
      }
    },
    {
      "type": "Feature",
      "properties": {
        "POINT_ID": "d27a9b88-c8b3-46d2-8244-790dee735660",
        "LEVEL_ID": "cbaa6e47-f6e1-43d9-aec5-57793e93923f",
        "CATEGORY": "Stairs"
      },
      "geometry": {
        "type": "Point",
        "coordinates": [
          -84.3935014718276,
          42.25117069781399
        ]
      }
    },
    {
      "type": "Feature",
      "properties": {
        "POINT_ID": "e352f469-525f-45ae-b690-aa230d4bc548",
        "LEVEL_ID": "cbaa6e47-f6e1-43d9-aec5-57793e93923f",
        "CATEGORY": "Stairs"
      },
      "geometry": {
        "type": "Point",
        "coordinates": [
          -84.3933138528871,
          42.25073690303121
        ]
      }
    },
    {
      "type": "Feature",
      "properties": {
        "POINT_ID": "84d1562b-0d31-482e-a343-2909e458a169",
        "LEVEL_ID": "cbaa6e47-f6e1-43d9-aec5-57793e93923f",
        "CATEGORY": "Elevator",
        "ID": "7786c100-1539-42fc-9bcc-104c844d137e"
      },
      "geometry": {
        "type": "Point",
        "coordinates": [
          -84.39329965473344,
          42.25069239250341
        ]
      }
    },
    {
      "type": "Feature",
      "properties": {
        "POINT_ID": "6fbe6f53-c59a-4374-b204-1a9fb28c123d",
        "LEVEL_ID": "cbaa6e47-f6e1-43d9-aec5-57793e93923f",
        "CATEGORY": "Restroom"
      },
      "geometry": {
        "type": "Point",
        "coordinates": [
          -84.39321545991093,
          42.25069768557408
        ]
      }
    },
    {
      "type": "Feature",
      "properties": {
        "POINT_ID": "419786a1-475c-4520-a40a-ec1fa319c794",
        "LEVEL_ID": "cbaa6e47-f6e1-43d9-aec5-57793e93923f",
        "CATEGORY": "Elevator",
        "ID": "54b695b2-7ad9-4c92-a753-63efddf29075"
      },
      "geometry": {
        "type": "Point",
        "coordinates": [
          -84.3930714528962,
          42.25076825500517
        ]
      }
    },
    {
      "type": "Feature",
      "properties": {
        "POINT_ID": "45f8e5b3-bb93-41d0-8b1c-440ad2f21fd8",
        "LEVEL_ID": "cbaa6e47-f6e1-43d9-aec5-57793e93923f",
        "CATEGORY": "Restroom"
      },
      "geometry": {
        "type": "Point",
        "coordinates": [
          -84.3931715069533,
          42.2507964202564
        ]
      }
    },
    {
      "type": "Feature",
      "properties": {
        "POINT_ID": "988e25b9-54e8-49ea-a7fc-9784d998f406",
        "LEVEL_ID": "cbaa6e47-f6e1-43d9-aec5-57793e93923f",
        "CATEGORY": "Restroom"
      },
      "geometry": {
        "type": "Point",
        "coordinates": [
          -84.3933284388748,
          42.25111350345142
        ]
      }
    },
    {
      "type": "Feature",
      "properties": {
        "POINT_ID": "e29dbbc4-69f4-489a-8c46-42b90e65b9bd",
        "LEVEL_ID": "cbaa6e47-f6e1-43d9-aec5-57793e93923f",
        "CATEGORY": "Stairs"
      },
      "geometry": {
        "type": "Point",
        "coordinates": [
          -84.39320641486036,
          42.2505748318097
        ]
      }
    },
    {
      "type": "Feature",
      "properties": {
        "POINT_ID": "9ed2af88-71b3-4e35-9d73-6e5fb4bfcc8b",
        "LEVEL_ID": "cbaa6e47-f6e1-43d9-aec5-57793e93923f",
        "CATEGORY": "Stairs"
      },
      "geometry": {
        "type": "Point",
        "coordinates": [
          -84.39284940609588,
          42.251158329332874
        ]
      }
    },
    {
      "type": "Feature",
      "properties": {
        "POINT_ID": "25ac9a68-9e82-4e88-9139-5c6e8eb4af0f",
        "LEVEL_ID": "cbaa6e47-f6e1-43d9-aec5-57793e93923f",
        "CATEGORY": "Elevator",
        "ID": "3191812a-6cbb-479a-a590-55cc6841c565"
      },
      "geometry": {
        "type": "Point",
        "coordinates": [
          -84.39269381034521,
          42.2506863442251
        ]
      }
    },
    {
      "type": "Feature",
      "properties": {
        "POINT_ID": "ef16a6f4-5548-42f4-9561-03c7e556faac",
        "LEVEL_ID": "cbaa6e47-f6e1-43d9-aec5-57793e93923f",
        "CATEGORY": "Elevator",
        "ID": "b5cda956-b9d5-40f0-bb5b-9cdac864ffa2"
      },
      "geometry": {
        "type": "Point",
        "coordinates": [
          -84.39262800460787,
          42.250712585045186
        ]
      }
    },
    {
      "type": "Feature",
      "properties": {
        "POINT_ID": "5fb62c70-abab-4a25-ac8c-17389ca3d18a",
        "LEVEL_ID": "cbaa6e47-f6e1-43d9-aec5-57793e93923f",
        "CATEGORY": "Elevator",
        "ID": "ae3623a0-f729-4fdb-b515-2130e9cac988"
      },
      "geometry": {
        "type": "Point",
        "coordinates": [
          -84.39266995504063,
          42.25075738798157
        ]
      }
    },
    {
      "type": "Feature",
      "properties": {
        "POINT_ID": "58f7df2b-91ba-4222-ac02-50449acb338c",
        "LEVEL_ID": "cbaa6e47-f6e1-43d9-aec5-57793e93923f",
        "CATEGORY": "Stairs",
        "ID": "da31a008-9f06-4db7-bcab-20840d972d73"
      },
      "geometry": {
        "type": "Point",
        "coordinates": [
          -84.39268793607224,
          42.25072695145134
        ]
      }
    },
    {
      "type": "Feature",
      "properties": {
        "POINT_ID": "ef05eb11-9bc5-46e2-923b-bb0aa7f388b8",
        "LEVEL_ID": "cbaa6e47-f6e1-43d9-aec5-57793e93923f",
        "CATEGORY": "Restroom"
      },
      "geometry": {
        "type": "Point",
        "coordinates": [
          -84.3926097412229,
          42.25082568600921
        ]
      }
    },
    {
      "type": "Feature",
      "properties": {
        "POINT_ID": "e3806f2b-45ab-4772-94cd-0a62ca7a663a",
        "LEVEL_ID": "cbaa6e47-f6e1-43d9-aec5-57793e93923f",
        "CATEGORY": "Stairs"
      },
      "geometry": {
        "type": "Point",
        "coordinates": [
          -84.39206488124783,
          42.25088861155264
        ]
      }
    },
    {
      "type": "Feature",
      "properties": {
        "POINT_ID": "0d5d7417-6a8e-4ec2-b56c-041eec96b60e",
        "LEVEL_ID": "cbaa6e47-f6e1-43d9-aec5-57793e93923f",
        "CATEGORY": "Restroom"
      },
      "geometry": {
        "type": "Point",
        "coordinates": [
          -84.39244055784053,
          42.25054869186679
        ]
      }
    },
    {
      "type": "Feature",
      "properties": {
        "POINT_ID": "a981d9dd-2c84-4b37-b48d-33058717853a",
        "LEVEL_ID": "cbaa6e47-f6e1-43d9-aec5-57793e93923f",
        "CATEGORY": "Restroom"
      },
      "geometry": {
        "type": "Point",
        "coordinates": [
          -84.3926038548226,
          42.25068748483476
        ]
      }
    },
    {
      "type": "Feature",
      "properties": {
        "POINT_ID": "94d3140c-36b5-4df8-9a34-0231a5eb2dae",
        "LEVEL_ID": "cbaa6e47-f6e1-43d9-aec5-57793e93923f",
        "CATEGORY": "Stairs"
      },
      "geometry": {
        "type": "Point",
        "coordinates": [
          -84.39242339054684,
          42.25030897201007
        ]
      }
    },
    {
      "type": "Feature",
      "properties": {
        "POINT_ID": "447e34ae-1447-4ed9-af61-3e31b484a1f0",
        "LEVEL_ID": "cbaa6e47-f6e1-43d9-aec5-57793e93923f",
        "CATEGORY": "Elevator"
      },
      "geometry": {
        "type": "Point",
        "coordinates": [
          -84.39272805341577,
          42.250980054161744
        ]
      }
    },
    {
      "type": "Feature",
      "properties": {
        "POINT_ID": "f8e44b7d-6e11-4251-b268-7b6a23847a2b",
        "LEVEL_ID": "cbaa6e47-f6e1-43d9-aec5-57793e93923f",
        "CATEGORY": "Restroom"
      },
      "geometry": {
        "type": "Point",
        "coordinates": [
          -84.39213067700861,
          42.2508697093285
        ]
      }
    },
    {
      "type": "Feature",
      "properties": {
        "POINT_ID": "8d928cf7-bfea-4ac5-8a5e-f602eed7e77a",
        "LEVEL_ID": "cbaa6e47-f6e1-43d9-aec5-57793e93923f",
        "CATEGORY": "Restroom"
      },
      "geometry": {
        "type": "Point",
        "coordinates": [
          -84.39287736427508,
          42.2510305878571
        ]
      }
    },
    {
      "type": "Feature",
      "properties": {
        "POINT_ID": "235f08e7-e406-4abe-88fe-c61558306112",
        "LEVEL_ID": "cbaa6e47-f6e1-43d9-aec5-57793e93923f",
        "CATEGORY": "Restroom",
        "SUB_CAT": "Male"
      },
      "geometry": {
        "type": "Point",
        "coordinates": [
          -84.3922661927744,
          42.25092281769751
        ]
      }
    },
    {
      "type": "Feature",
      "properties": {
        "POINT_ID": "9aa9298c-1d71-4857-a7d1-efbe3e581a71",
        "LEVEL_ID": "cbaa6e47-f6e1-43d9-aec5-57793e93923f",
        "CATEGORY": "Restroom",
        "SUB_CAT": "Female"
      },
      "geometry": {
        "type": "Point",
        "coordinates": [
          -84.39225310826265,
          42.2508943239401
        ]
      }
    },
    {
      "type": "Feature",
      "properties": {
        "POINT_ID": "86273708-7f63-4ff6-83ac-b7b882f462a0",
        "LEVEL_ID": "cbaa6e47-f6e1-43d9-aec5-57793e93923f",
        "CATEGORY": "Restroom",
        "SUB_CAT": "Accessible"
      },
      "geometry": {
        "type": "Point",
        "coordinates": [
          -84.39269937280748,
          42.25082754237791
        ]
      }
    },
    {
      "type": "Feature",
      "properties": {
        "POINT_ID": "17bc99c7-c6b0-425e-b687-1914cbd1edd9",
        "LEVEL_ID": "cbaa6e47-f6e1-43d9-aec5-57793e93923f",
        "CATEGORY": "Restroom"
      },
      "geometry": {
        "type": "Point",
        "coordinates": [
          -84.39246132168014,
          42.250815948380506
        ]
      }
    },
    {
      "type": "Feature",
      "properties": {
        "POINT_ID": "3eaa0c9e-a42d-45f0-9355-14886ae4b1cf",
        "LEVEL_ID": "cbaa6e47-f6e1-43d9-aec5-57793e93923f",
        "CATEGORY": "Elevator"
      },
      "geometry": {
        "type": "Point",
        "coordinates": [
          -84.3926850220427,
          42.25084821494699
        ]
      }
    },
    {
      "type": "Feature",
      "properties": {
        "POINT_ID": "165d6819-75c1-450a-a576-8054312b3ddc",
        "LEVEL_ID": "5b51c04b-3057-48b3-aa85-7f4de9b81be0",
        "CATEGORY": "Stairs"
      },
      "geometry": {
        "type": "Point",
        "coordinates": [
          -84.39242339054684,
          42.25030897201007
        ]
      }
    },
    {
      "type": "Feature",
      "properties": {
        "POINT_ID": "db8b91b1-e65d-47bb-8b37-7ba3e56b7d58",
        "LEVEL_ID": "5b51c04b-3057-48b3-aa85-7f4de9b81be0",
        "CATEGORY": "Stairs"
      },
      "geometry": {
        "type": "Point",
        "coordinates": [
          -84.39320641486036,
          42.2505748318097
        ]
      }
    },
    {
      "type": "Feature",
      "properties": {
        "POINT_ID": "c2b2f537-1493-442b-967e-3b483e8164cb",
        "LEVEL_ID": "5b51c04b-3057-48b3-aa85-7f4de9b81be0",
        "CATEGORY": "Stairs"
      },
      "geometry": {
        "type": "Point",
        "coordinates": [
          -84.39284940609588,
          42.251158329332874
        ]
      }
    },
    {
      "type": "Feature",
      "properties": {
        "POINT_ID": "46ce8b54-397e-42eb-936b-f41bda5500ec",
        "LEVEL_ID": "5b51c04b-3057-48b3-aa85-7f4de9b81be0",
        "CATEGORY": "Stairs",
        "ID": "a707bf78-ebca-47e3-b87c-dd3375dd4b6b"
      },
      "geometry": {
        "type": "Point",
        "coordinates": [
          -84.39206488124783,
          42.25088861155264
        ]
      }
    },
    {
      "type": "Feature",
      "properties": {
        "POINT_ID": "e705581c-4785-4f52-87a9-688f17abb024",
        "LEVEL_ID": "5b51c04b-3057-48b3-aa85-7f4de9b81be0",
        "CATEGORY": "Elevator",
        "ID": "229d161d-5f5c-4415-bec5-921aefa79348"
      },
      "geometry": {
        "type": "Point",
        "coordinates": [
          -84.39262800460787,
          42.250712585045186
        ]
      }
    },
    {
      "type": "Feature",
      "properties": {
        "POINT_ID": "477c61b9-ee28-41b8-93cd-32f753535c8b",
        "LEVEL_ID": "5b51c04b-3057-48b3-aa85-7f4de9b81be0",
        "CATEGORY": "Elevator",
        "ID": "6c7b5fa0-a8a3-4dbf-ba65-0c05547cddbb"
      },
      "geometry": {
        "type": "Point",
        "coordinates": [
          -84.39266995504063,
          42.25075738798157
        ]
      }
    },
    {
      "type": "Feature",
      "properties": {
        "POINT_ID": "0a593cea-8c8a-4c95-9aa6-7dec6a8b4f42",
        "LEVEL_ID": "5b51c04b-3057-48b3-aa85-7f4de9b81be0",
        "CATEGORY": "Stairs",
        "ID": "04f168d2-0130-4d66-92b3-c53b122ab3d4"
      },
      "geometry": {
        "type": "Point",
        "coordinates": [
          -84.39268793607224,
          42.25072695145134
        ]
      }
    },
    {
      "type": "Feature",
      "properties": {
        "POINT_ID": "5426ec59-91bb-4f7c-bd92-2002bcd5c2bf",
        "LEVEL_ID": "5b51c04b-3057-48b3-aa85-7f4de9b81be0",
        "CATEGORY": "Restroom"
      },
      "geometry": {
        "type": "Point",
        "coordinates": [
          -84.39255540270163,
          42.250687726166575
        ]
      }
    },
    {
      "type": "Feature",
      "properties": {
        "POINT_ID": "4582e53e-1a41-43ad-aea9-cd2094a0f8d0",
        "LEVEL_ID": "5b51c04b-3057-48b3-aa85-7f4de9b81be0",
        "CATEGORY": "Restroom"
      },
      "geometry": {
        "type": "Point",
        "coordinates": [
          -84.39281994191967,
          42.25106416324319
        ]
      }
    },
    {
      "type": "Feature",
      "properties": {
        "POINT_ID": "03796858-b165-48bd-864d-aae73bcfb767",
        "LEVEL_ID": "5b51c04b-3057-48b3-aa85-7f4de9b81be0",
        "CATEGORY": "Restroom"
      },
      "geometry": {
        "type": "Point",
        "coordinates": [
          -84.39274605917554,
          42.250868742939424
        ]
      }
    },
    {
      "type": "Feature",
      "properties": {
        "POINT_ID": "04a9f20f-81d2-4971-81e2-446b9a3707a4",
        "LEVEL_ID": "5b51c04b-3057-48b3-aa85-7f4de9b81be0",
        "CATEGORY": "Restroom"
      },
      "geometry": {
        "type": "Point",
        "coordinates": [
          -84.39272585521189,
          42.250824481920006
        ]
      }
    },
    {
      "type": "Feature",
      "properties": {
        "POINT_ID": "e79e4c27-54c5-479b-998b-253135db768d",
        "LEVEL_ID": "5b51c04b-3057-48b3-aa85-7f4de9b81be0",
        "CATEGORY": "Restroom"
      },
      "geometry": {
        "type": "Point",
        "coordinates": [
          -84.39249989791688,
          42.25055927327943
        ]
      }
    },
    {
      "type": "Feature",
      "properties": {
        "POINT_ID": "2ca06934-d56e-4344-ab6e-2c44afaaf6cc",
        "LEVEL_ID": "5b51c04b-3057-48b3-aa85-7f4de9b81be0",
        "CATEGORY": "Restroom"
      },
      "geometry": {
        "type": "Point",
        "coordinates": [
          -84.39289324357236,
          42.25063159750068
        ]
      }
    },
    {
      "type": "Feature",
      "properties": {
        "POINT_ID": "a5d8813c-543f-41a6-bfe7-1fbdd056373b",
        "LEVEL_ID": "5b51c04b-3057-48b3-aa85-7f4de9b81be0",
        "CATEGORY": "Restroom"
      },
      "geometry": {
        "type": "Point",
        "coordinates": [
          -84.39294933683452,
          42.25054591683377
        ]
      }
    },
    {
      "type": "Feature",
      "properties": {
        "POINT_ID": "6952e451-6120-46ba-8d96-2af90f116a66",
        "LEVEL_ID": "5b51c04b-3057-48b3-aa85-7f4de9b81be0",
        "CATEGORY": "Restroom"
      },
      "geometry": {
        "type": "Point",
        "coordinates": [
          -84.39300298186507,
          42.25056066731591
        ]
      }
    },
    {
      "type": "Feature",
      "properties": {
        "POINT_ID": "bc4df3e8-4665-458d-b3c0-7db917d2bcca",
        "LEVEL_ID": "5b51c04b-3057-48b3-aa85-7f4de9b81be0",
        "CATEGORY": "Elevator"
      },
      "geometry": {
        "type": "Point",
        "coordinates": [
          -84.39269381034521,
          42.2506863442251
        ]
      }
    },
    {
      "type": "Feature",
      "properties": {
        "POINT_ID": "0a7902d6-53e6-4501-a3a2-f0e879ce1d5f",
        "LEVEL_ID": "d0062475-4981-433a-8dae-e2b992974247",
        "CATEGORY": "Stairs",
        "ID": "acd26761-9a65-42c4-9db5-cd962561f235"
      },
      "geometry": {
        "type": "Point",
        "coordinates": [
          -84.39242339054684,
          42.25030897201007
        ]
      }
    },
    {
      "type": "Feature",
      "properties": {
        "POINT_ID": "0c20f30c-4d10-40b0-a7ab-184edb876496",
        "LEVEL_ID": "d0062475-4981-433a-8dae-e2b992974247",
        "CATEGORY": "Elevator",
        "ID": "f750fc13-13ef-4155-9ec6-406d7055cb65"
      },
      "geometry": {
        "type": "Point",
        "coordinates": [
          -84.39262800460787,
          42.250712585045186
        ]
      }
    },
    {
      "type": "Feature",
      "properties": {
        "POINT_ID": "988161ce-ff39-4662-8dda-4a8f869c6d94",
        "LEVEL_ID": "d0062475-4981-433a-8dae-e2b992974247",
        "CATEGORY": "Elevator",
        "ID": "448c2917-7e62-4849-9fef-68376d7baba1"
      },
      "geometry": {
        "type": "Point",
        "coordinates": [
          -84.39266995504063,
          42.25075738798157
        ]
      }
    },
    {
      "type": "Feature",
      "properties": {
        "POINT_ID": "88412578-98c7-4c0d-9a5c-cc0781c45514",
        "LEVEL_ID": "d0062475-4981-433a-8dae-e2b992974247",
        "CATEGORY": "Stairs",
        "ID": "c54f1da4-f93d-4a4e-b99e-0f03d30e9039"
      },
      "geometry": {
        "type": "Point",
        "coordinates": [
          -84.39268793607224,
          42.25072695145134
        ]
      }
    },
    {
      "type": "Feature",
      "properties": {
        "POINT_ID": "dd3dfbdf-68b1-47bb-b348-5dbf353be524",
        "LEVEL_ID": "d0062475-4981-433a-8dae-e2b992974247",
        "CATEGORY": "Stairs",
        "ID": "a119a3ce-dfc5-4c16-b704-97fc1c0eaec4"
      },
      "geometry": {
        "type": "Point",
        "coordinates": [
          -84.39284940609588,
          42.251158329332874
        ]
      }
    },
    {
      "type": "Feature",
      "properties": {
        "POINT_ID": "bd479a6b-b98e-4554-9422-8b4ca78addca",
        "LEVEL_ID": "d0062475-4981-433a-8dae-e2b992974247",
        "CATEGORY": "Stairs",
        "ID": "4af76f71-d2cf-479a-a779-871ab046149a"
      },
      "geometry": {
        "type": "Point",
        "coordinates": [
          -84.39206488124783,
          42.25088861155264
        ]
      }
    },
    {
      "type": "Feature",
      "properties": {
        "POINT_ID": "81de83f8-2320-4739-8108-552a0fb260c8",
        "LEVEL_ID": "d0062475-4981-433a-8dae-e2b992974247",
        "CATEGORY": "Stairs",
        "ID": "d8b3f81e-edd2-4038-a297-511b015ff56d"
      },
      "geometry": {
        "type": "Point",
        "coordinates": [
          -84.39320641486036,
          42.2505748318097
        ]
      }
    },
    {
      "type": "Feature",
      "properties": {
        "POINT_ID": "dc0b7c68-3783-40b6-8c17-b53ecc020e87",
        "LEVEL_ID": "d0062475-4981-433a-8dae-e2b992974247",
        "CATEGORY": "Restroom"
      },
      "geometry": {
        "type": "Point",
        "coordinates": [
          -84.39270840448488,
          42.25087915566073
        ]
      }
    },
    {
      "type": "Feature",
      "properties": {
        "POINT_ID": "7c44a3ce-f68d-449b-be91-b7925a2ad4c6",
        "LEVEL_ID": "d0062475-4981-433a-8dae-e2b992974247",
        "CATEGORY": "Restroom"
      },
      "geometry": {
        "type": "Point",
        "coordinates": [
          -84.39256650370051,
          42.250584384305135
        ]
      }
    },
    {
      "type": "Feature",
      "properties": {
        "POINT_ID": "d1b49357-1156-4ee1-92a7-18f5b54c908e",
        "LEVEL_ID": "d0062475-4981-433a-8dae-e2b992974247",
        "CATEGORY": "Restroom",
        "ANCHORID": "aca3390a-e756-48f4-8cff-a916463cc239"
      },
      "geometry": {
        "type": "Point",
        "coordinates": [
          -84.39263613679168,
          42.250624394778555
        ]
      }
    },
    {
      "type": "Feature",
      "properties": {
        "POINT_ID": "6a066c62-d29e-4097-a560-2bdb626290ab",
        "LEVEL_ID": "d0062475-4981-433a-8dae-e2b992974247",
        "CATEGORY": "Elevator"
      },
      "geometry": {
        "type": "Point",
        "coordinates": [
          -84.39269381034521,
          42.2506863442251
        ]
      }
    },
    {
      "type": "Feature",
      "properties": {
        "POINT_ID": "1e7b2c6b-fc5b-4c14-a284-cc7882e38352",
        "LEVEL_ID": "6e8e9532-9298-4e67-955a-cded8f8c0eb3",
        "CATEGORY": "Stairs",
        "ID": "f15ebc76-50e5-4235-b2bf-f62b916e4aa1"
      },
      "geometry": {
        "type": "Point",
        "coordinates": [
          -84.39242339054684,
          42.25030897201007
        ]
      }
    },
    {
      "type": "Feature",
      "properties": {
        "POINT_ID": "f071146a-f78c-4fb7-9365-c6d8a4891568",
        "LEVEL_ID": "6e8e9532-9298-4e67-955a-cded8f8c0eb3",
        "CATEGORY": "Elevator",
        "ID": "9a9866be-16d0-40c6-81c2-038396c9d5fa"
      },
      "geometry": {
        "type": "Point",
        "coordinates": [
          -84.39262800460787,
          42.250712585045186
        ]
      }
    },
    {
      "type": "Feature",
      "properties": {
        "POINT_ID": "0406c957-9989-4dd9-aeff-a816f56301bd",
        "LEVEL_ID": "6e8e9532-9298-4e67-955a-cded8f8c0eb3",
        "CATEGORY": "Restroom",
        "ID": "5d496175-0cc0-4335-bb70-feeaea547648"
      },
      "geometry": {
        "type": "Point",
        "coordinates": [
          -84.39255540270163,
          42.250687726166575
        ]
      }
    },
    {
      "type": "Feature",
      "properties": {
        "POINT_ID": "ffd2fc15-1e3f-4680-8e87-733d925fc28d",
        "LEVEL_ID": "6e8e9532-9298-4e67-955a-cded8f8c0eb3",
        "CATEGORY": "Elevator",
        "ID": "4c8802c5-5582-4508-acc9-12cfee3d2807"
      },
      "geometry": {
        "type": "Point",
        "coordinates": [
          -84.39266995504063,
          42.25075738798157
        ]
      }
    },
    {
      "type": "Feature",
      "properties": {
        "POINT_ID": "4e0baeb3-bd54-472b-af86-2267b2ddf139",
        "LEVEL_ID": "6e8e9532-9298-4e67-955a-cded8f8c0eb3",
        "CATEGORY": "Stairs",
        "ID": "7a3d95a5-43de-4e9c-a242-e9bb5403cd9c"
      },
      "geometry": {
        "type": "Point",
        "coordinates": [
          -84.39268793607224,
          42.25072695145134
        ]
      }
    },
    {
      "type": "Feature",
      "properties": {
        "POINT_ID": "612428d6-7704-401c-9d8f-6cd0e991b979",
        "LEVEL_ID": "6e8e9532-9298-4e67-955a-cded8f8c0eb3",
        "CATEGORY": "Stairs",
        "ID": "b6b02344-d289-44c8-a405-c1c2fdde6e38"
      },
      "geometry": {
        "type": "Point",
        "coordinates": [
          -84.39284940609588,
          42.251158329332874
        ]
      }
    },
    {
      "type": "Feature",
      "properties": {
        "POINT_ID": "e2a9083f-b12c-4a23-a177-9e9aae651af8",
        "LEVEL_ID": "6e8e9532-9298-4e67-955a-cded8f8c0eb3",
        "CATEGORY": "Stairs",
        "ID": "895d16e7-8f30-4287-91c3-552010562a94"
      },
      "geometry": {
        "type": "Point",
        "coordinates": [
          -84.39206488124783,
          42.25088861155264
        ]
      }
    },
    {
      "type": "Feature",
      "properties": {
        "POINT_ID": "978b8f11-a81c-4f8b-9d63-eab0831cd259",
        "LEVEL_ID": "6e8e9532-9298-4e67-955a-cded8f8c0eb3",
        "CATEGORY": "Stairs",
        "ID": "bde748b9-f34f-4ef5-8bbf-08e68c278b79"
      },
      "geometry": {
        "type": "Point",
        "coordinates": [
          -84.39320641486036,
          42.2505748318097
        ]
      }
    },
    {
      "type": "Feature",
      "properties": {
        "POINT_ID": "c730d2f8-a31d-42c2-8674-46dd190d742f",
        "LEVEL_ID": "6e8e9532-9298-4e67-955a-cded8f8c0eb3",
        "CATEGORY": "Restroom"
      },
      "geometry": {
        "type": "Point",
        "coordinates": [
          -84.39270991480849,
          42.25087729709795
        ]
      }
    },
    {
      "type": "Feature",
      "properties": {
        "POINT_ID": "213442ad-9057-4337-bb37-294449ef9f39",
        "LEVEL_ID": "6e8e9532-9298-4e67-955a-cded8f8c0eb3",
        "CATEGORY": "Restroom"
      },
      "geometry": {
        "type": "Point",
        "coordinates": [
          -84.39240362172976,
          42.25083265974714
        ]
      }
    },
    {
      "type": "Feature",
      "properties": {
        "POINT_ID": "48256f43-441e-43fc-8d0d-13b7f358eab6",
        "LEVEL_ID": "6e8e9532-9298-4e67-955a-cded8f8c0eb3",
        "CATEGORY": "Elevator"
      },
      "geometry": {
        "type": "Point",
        "coordinates": [
          -84.39269381034521,
          42.2506863442251
        ]
      }
    },
    {
      "type": "Feature",
      "properties": {
        "POINT_ID": "fd34a0f6-deef-4beb-aa3d-a320dad17713",
        "LEVEL_ID": "6e8e9532-9298-4e67-955a-cded8f8c0eb3",
        "CATEGORY": "Restroom"
      },
      "geometry": {
        "type": "Point",
        "coordinates": [
          -84.39250269082774,
          42.25055874599768
        ]
      }
    },
    {
      "type": "Feature",
      "properties": {
        "POINT_ID": "735b2b59-cb85-453e-bc2a-1d41544e0c6a",
        "LEVEL_ID": "9c04b08d-edd2-4a2f-b0cd-f445622e4a2b",
        "CATEGORY": "Stairs"
      },
      "geometry": {
        "type": "Point",
        "coordinates": [
          -84.39390354934581,
          42.25100709481593
        ]
      }
    },
    {
      "type": "Feature",
      "properties": {
        "POINT_ID": "d1803402-1e6a-4b17-99b9-fbb72a23dd5d",
        "LEVEL_ID": "9c04b08d-edd2-4a2f-b0cd-f445622e4a2b",
        "CATEGORY": "Elevator"
      },
      "geometry": {
        "type": "Point",
        "coordinates": [
          -84.39381928426465,
          42.25107344794399
        ]
      }
    },
    {
      "type": "Feature",
      "properties": {
        "POINT_ID": "6909c179-582e-46eb-804b-ca0372e94f1e",
        "LEVEL_ID": "9c04b08d-edd2-4a2f-b0cd-f445622e4a2b",
        "CATEGORY": "Elevator"
      },
      "geometry": {
        "type": "Point",
        "coordinates": [
          -84.39385936392857,
          42.250608594682404
        ]
      }
    },
    {
      "type": "Feature",
      "properties": {
        "POINT_ID": "2141d8dc-1b34-43ee-abb7-44ae5b7fc80f",
        "LEVEL_ID": "9c04b08d-edd2-4a2f-b0cd-f445622e4a2b",
        "CATEGORY": "Stairs"
      },
      "geometry": {
        "type": "Point",
        "coordinates": [
          -84.39358821389362,
          42.250661022436965
        ]
      }
    },
    {
      "type": "Feature",
      "properties": {
        "POINT_ID": "ed00a5d0-61d7-4a86-9165-901e6779c075",
        "LEVEL_ID": "9c04b08d-edd2-4a2f-b0cd-f445622e4a2b",
        "CATEGORY": "Restroom"
      },
      "geometry": {
        "type": "Point",
        "coordinates": [
          -84.39406478535736,
          42.250885410150985
        ]
      }
    },
    {
      "type": "Feature",
      "properties": {
        "POINT_ID": "14ef6aaf-828b-4d93-8f0e-a1bd3a9efba9",
        "LEVEL_ID": "9c04b08d-edd2-4a2f-b0cd-f445622e4a2b",
        "CATEGORY": "Restroom"
      },
      "geometry": {
        "type": "Point",
        "coordinates": [
          -84.39392063497168,
          42.25089217801014
        ]
      }
    },
    {
      "type": "Feature",
      "properties": {
        "POINT_ID": "7501c9cf-9e9f-40bd-ab67-620131be64eb",
        "LEVEL_ID": "9c04b08d-edd2-4a2f-b0cd-f445622e4a2b",
        "CATEGORY": "Restroom"
      },
      "geometry": {
        "type": "Point",
        "coordinates": [
          -84.39377792141056,
          42.25061611847629
        ]
      }
    },
    {
      "type": "Feature",
      "properties": {
        "POINT_ID": "737e1bd7-33f7-4a5b-b564-e8bf3b47a168",
        "LEVEL_ID": "e1e7a02b-6346-424d-a3f3-93864ad56730",
        "CATEGORY": "Stairs",
        "ID": "007f3c89-1e37-4005-b75c-b1a16a14dab2"
      },
      "geometry": {
        "type": "Point",
        "coordinates": [
          -84.39153875576547,
          42.25061029850344
        ]
      }
    },
    {
      "type": "Feature",
      "properties": {
        "POINT_ID": "611e5808-1879-4367-9c42-4a8f53757f29",
        "LEVEL_ID": "e1e7a02b-6346-424d-a3f3-93864ad56730",
        "CATEGORY": "Elevator",
        "ID": "a095aa61-d9b0-43a6-8162-990e9a0fd2b3"
      },
      "geometry": {
        "type": "Point",
        "coordinates": [
          -84.39164106630791,
          42.25090796025675
        ]
      }
    },
    {
      "type": "Feature",
      "properties": {
        "POINT_ID": "6eefd9ec-960c-4f2f-a86c-95234567640c",
        "LEVEL_ID": "e1e7a02b-6346-424d-a3f3-93864ad56730",
        "CATEGORY": "Stairs",
        "ID": "f4c6cfd4-93ff-438e-abe4-64b8d146310e"
      },
      "geometry": {
        "type": "Point",
        "coordinates": [
          -84.3916691166296,
          42.25098653500154
        ]
      }
    },
    {
      "type": "Feature",
      "properties": {
        "POINT_ID": "1237ebbb-0674-4c4c-bee7-daef50b12c74",
        "LEVEL_ID": "e1e7a02b-6346-424d-a3f3-93864ad56730",
        "CATEGORY": "Parking",
        "ANCHORID": "c98c453e-5450-4a6e-85e4-7360cb567e70"
      },
      "geometry": {
        "type": "Point",
        "coordinates": [
          -84.3913878035899,
          42.25094024311813
        ]
      }
    },
    {
      "type": "Feature",
      "properties": {
        "POINT_ID": "33d000c1-27d9-490e-8412-2fa429a37b73",
        "LEVEL_ID": "e1e7a02b-6346-424d-a3f3-93864ad56730",
        "CATEGORY": "Elevator",
        "ID": "1c8b5bb2-2023-4a6f-8d47-1d404f1b9a5c"
      },
      "geometry": {
        "type": "Point",
        "coordinates": [
          -84.39144857590634,
          42.25058456370361
        ]
      }
    },
    {
      "type": "Feature",
      "properties": {
        "POINT_ID": "6176dc16-bb11-4ed8-a514-a39b225edce0",
        "LEVEL_ID": "a816d0da-21db-4d77-b901-91138b9e1076",
        "CATEGORY": "Stairs",
        "ID": "4e5a1ad4-6a2b-41c6-a684-449c4de2b0e9"
      },
      "geometry": {
        "type": "Point",
        "coordinates": [
          -84.39153875576547,
          42.25061029850344
        ]
      }
    },
    {
      "type": "Feature",
      "properties": {
        "POINT_ID": "10f48be8-95e0-4886-a36b-1b71d8f3543e",
        "LEVEL_ID": "a816d0da-21db-4d77-b901-91138b9e1076",
        "CATEGORY": "Parking",
        "ANCHORID": "24e4540d-b51e-47aa-a9b5-d6764d6c1a62",
        "ID": "9b52cf6c-04be-4da9-8b59-4f383ad01433"
      },
      "geometry": {
        "type": "Point",
        "coordinates": [
          -84.3913878035899,
          42.25094024311813
        ]
      }
    },
    {
      "type": "Feature",
      "properties": {
        "POINT_ID": "b1efd19b-5738-4365-b5b7-a3e28dedee90",
        "LEVEL_ID": "a816d0da-21db-4d77-b901-91138b9e1076",
        "CATEGORY": "Stairs",
        "ID": "14eb6702-7843-45ae-bcc5-123439bef1f2"
      },
      "geometry": {
        "type": "Point",
        "coordinates": [
          -84.3916691166296,
          42.25098653500154
        ]
      }
    },
    {
      "type": "Feature",
      "properties": {
        "POINT_ID": "c93d5956-c8c9-4fad-8040-f8a02b11cd31",
        "LEVEL_ID": "a816d0da-21db-4d77-b901-91138b9e1076",
        "CATEGORY": "Elevator",
        "ID": "5cd92030-84f2-4534-b337-98d8bc1cac80"
      },
      "geometry": {
        "type": "Point",
        "coordinates": [
          -84.39164106630791,
          42.25090796025675
        ]
      }
    },
    {
      "type": "Feature",
      "properties": {
        "POINT_ID": "0b2ce9c5-2e6e-4610-86b8-05d597436446",
        "LEVEL_ID": "a816d0da-21db-4d77-b901-91138b9e1076",
        "CATEGORY": "Elevator",
        "ID": "8ea796e4-bc81-4308-8962-c4038d2ea4cd"
      },
      "geometry": {
        "type": "Point",
        "coordinates": [
          -84.39144857590634,
          42.25058456370361
        ]
      }
    },
    {
      "type": "Feature",
      "properties": {
        "POINT_ID": "34ce127a-4eeb-43de-acfa-086b3f40ef8e",
        "LEVEL_ID": "b9604a49-7326-4622-9102-34d40a3643ec",
        "CATEGORY": "Parking",
        "ANCHORID": "0b78c132-733c-46e8-8d6e-d740f8fa2940",
        "ID": "257471f0-0a13-47b0-9f21-d162ea7cf0ea"
      },
      "geometry": {
        "type": "Point",
        "coordinates": [
          -84.39133142926805,
          42.2507809121468
        ]
      }
    },
    {
      "type": "Feature",
      "properties": {
        "POINT_ID": "3daa444c-e47f-432d-96af-b9f4e64e602a",
        "LEVEL_ID": "62ea4bd2-98c3-4065-839f-65aa472d3218",
        "CATEGORY": "Stairs",
        "ID": "4c6e5787-2e96-4bb2-b7c0-10f693ad6404"
      },
      "geometry": {
        "type": "Point",
        "coordinates": [
          -84.3916691166296,
          42.25098653500154
        ]
      }
    },
    {
      "type": "Feature",
      "properties": {
        "POINT_ID": "461ae699-f240-4345-aea3-e2922d9a4dc7",
        "LEVEL_ID": "62ea4bd2-98c3-4065-839f-65aa472d3218",
        "CATEGORY": "Elevator",
        "ID": "db71baef-8371-4d4f-8177-7bcc3756d314"
      },
      "geometry": {
        "type": "Point",
        "coordinates": [
          -84.39164106630791,
          42.25090796025675
        ]
      }
    },
    {
      "type": "Feature",
      "properties": {
        "POINT_ID": "71f0719e-1f90-4f66-9671-957557457b69",
        "LEVEL_ID": "62ea4bd2-98c3-4065-839f-65aa472d3218",
        "CATEGORY": "Parking",
        "ANCHORID": "9509996a-927a-47c4-af81-9c764761eaa3"
      },
      "geometry": {
        "type": "Point",
        "coordinates": [
          -84.39143094676683,
          42.2510707672205
        ]
      }
    },
    {
      "type": "Feature",
      "properties": {
        "POINT_ID": "7ac48756-7f48-4f68-8a9b-2d07cf916b52",
        "LEVEL_ID": "899a3100-aad9-40ca-9ca1-10bf4c148d97",
        "CATEGORY": "Stairs",
        "ID": "09c411c1-d8e1-4429-8035-b03db0372613"
      },
      "geometry": {
        "type": "Point",
        "coordinates": [
          -84.39153875576547,
          42.25061029850344
        ]
      }
    },
    {
      "type": "Feature",
      "properties": {
        "POINT_ID": "631bc1b0-f161-4213-bf49-f48a34807e16",
        "LEVEL_ID": "899a3100-aad9-40ca-9ca1-10bf4c148d97",
        "CATEGORY": "Parking",
        "ANCHORID": "7fe1faa1-59f7-4a58-9ff7-e105974c1235"
      },
      "geometry": {
        "type": "Point",
        "coordinates": [
          -84.39133142926805,
          42.2507809121468
        ]
      }
    },
    {
      "type": "Feature",
      "properties": {
        "POINT_ID": "3dfa7ed2-1103-4dfe-959a-4b6f547e5eba",
        "LEVEL_ID": "899a3100-aad9-40ca-9ca1-10bf4c148d97",
        "CATEGORY": "Elevator",
        "ID": "2a746d70-3b64-4e08-a36c-5126f1636611"
      },
      "geometry": {
        "type": "Point",
        "coordinates": [
          -84.39144857590634,
          42.25058456370361
        ]
      }
    },
    {
      "type": "Feature",
      "properties": {
        "POINT_ID": "a81a0b3a-7c87-4dd7-a3af-2e93a9924153",
        "LEVEL_ID": "501a625c-3627-4e59-afa7-f9c19be8b878",
        "CATEGORY": "Stairs",
        "ID": "2b6ccd1a-3eb5-4b21-9153-d239076cf1c5"
      },
      "geometry": {
        "type": "Point",
        "coordinates": [
          -84.39153875576547,
          42.25061029850344
        ]
      }
    },
    {
      "type": "Feature",
      "properties": {
        "POINT_ID": "5851d82b-cccc-473b-9795-f32d6eebe85d",
        "LEVEL_ID": "501a625c-3627-4e59-afa7-f9c19be8b878",
        "CATEGORY": "Elevator",
        "ID": "e8417c9e-f944-4d92-b261-f48a17330443"
      },
      "geometry": {
        "type": "Point",
        "coordinates": [
          -84.39144857590634,
          42.25058456370361
        ]
      }
    }
  ]
}